-------------------------------------------------------------------------------
Test set: br.com.futureofteaching.WebServiceFutureOfTeachingApplicationTests
-------------------------------------------------------------------------------
Tests run: 1, Failures: 0, Errors: 0, Skipped: 0, Time elapsed: 12.709 s - in br.com.futureofteaching.WebServiceFutureOfTeachingApplicationTests
